counter/project/isim.log
ISim log file
Running: C:\Users\CS152B\Desktop\Group3\Lab0\first_counter_tb_isim_beh.exe -intstyle ise -gui -tclbatch isim.cmd -wdb C:/Users/CS152B/Desktop/Group3/Lab0/first_counter_tb_isim_beh.wdb 
ISim P.68d (signature 0x7708f090)
----------------------------------------------------------------------
WARNING:Security:42 - Your software subscription period has lapsed. Your current version of Xilinx tools will continue to function, but you no longer qualify for Xilinx software updates or new releases.


----------------------------------------------------------------------
This is a Full version of ISim.
Time resolution is 1 ps
# onerror resume
# wave add /
# run 1000 ns
Simulator is doing circuit initialization process.
time	 clk reset enable counter
Finished circuit initialization process.
0	 1 0 0 xxxx
1	 0 0 0 xxxx
2	 1 0 0 xxxx
3	 0 0 0 xxxx
4	 1 0 0 xxxx
5	 0 1 0 xxxx
6	 1 1 0 xxxx
7	 0 1 0 0000
8	 1 1 0 0000
9	 0 1 0 0000
10	 1 1 0 0000
11	 0 1 0 0000
12	 1 1 0 0000
13	 0 1 0 0000
14	 1 1 0 0000
15	 0 0 0 0000
16	 1 0 0 0000
17	 0 0 0 0001
18	 1 0 0 0001
19	 0 0 0 0001
20	 1 0 0 0001
21	 0 0 0 0001
22	 1 0 0 0001
23	 0 0 0 0001
24	 1 0 0 0001
25	 0 0 1 0001
26	 1 0 1 0001
27	 0 0 1 0001
28	 1 0 1 0001
29	 0 0 1 0001
30	 1 0 1 0001
31	 0 0 1 0001
32	 1 0 1 0001
33	 0 0 1 0001
34	 1 0 1 0001
35	 0 0 1 0001
36	 1 0 1 0001
37	 0 0 1 0001
38	 1 0 1 0001
39	 0 0 1 0001
40	 1 0 1 0001
41	 0 0 1 0001
42	 1 0 1 0001
43	 0 0 1 0001
44	 1 0 1 0001
45	 0 0 1 0001
46	 1 0 1 0001
47	 0 0 1 0001
48	 1 0 1 0001
49	 0 0 1 0010
50	 1 0 1 0010
51	 0 0 1 0010
52	 1 0 1 0010
53	 0 0 1 0010
54	 1 0 1 0010
55	 0 0 1 0010
56	 1 0 1 0010
57	 0 0 1 0010
58	 1 0 1 0010
59	 0 0 1 0010
60	 1 0 1 0010
61	 0 0 1 0010
62	 1 0 1 0010
63	 0 0 1 0010
64	 1 0 1 0010
65	 0 0 1 0010
66	 1 0 1 0010
67	 0 0 1 0010
68	 1 0 1 0010
69	 0 0 1 0010
70	 1 0 1 0010
71	 0 0 1 0010
72	 1 0 1 0010
73	 0 0 1 0010
74	 1 0 1 0010
75	 0 0 1 0010
76	 1 0 1 0010
77	 0 0 1 0010
78	 1 0 1 0010
79	 0 0 1 0010
80	 1 0 1 0010
81	 0 0 1 0011
82	 1 0 1 0011
83	 0 0 1 0011
84	 1 0 1 0011
85	 0 0 1 0011
86	 1 0 1 0011
87	 0 0 1 0011
88	 1 0 1 0011
89	 0 0 1 0011
90	 1 0 1 0011
91	 0 0 1 0011
92	 1 0 1 0011
93	 0 0 1 0011
94	 1 0 1 0011
95	 0 0 1 0011
96	 1 0 1 0011
97	 0 0 1 0011
98	 1 0 1 0011
99	 0 0 1 0011
100	 1 0 1 0011
101	 0 0 1 0011
102	 1 0 1 0011
103	 0 0 1 0011
104	 1 0 1 0011
105	 0 0 1 0011
106	 1 0 1 0011
107	 0 0 1 0011
108	 1 0 1 0011
109	 0 0 1 0011
110	 1 0 1 0011
111	 0 0 1 0011
112	 1 0 1 0011
113	 0 0 1 0100
114	 1 0 1 0100
115	 0 0 1 0100
116	 1 0 1 0100
117	 0 0 1 0100
118	 1 0 1 0100
119	 0 0 1 0100
120	 1 0 1 0100
121	 0 0 1 0100
122	 1 0 1 0100
123	 0 0 1 0100
124	 1 0 1 0100
125	 0 0 1 0100
126	 1 0 1 0100
127	 0 0 1 0100
128	 1 0 1 0100
129	 0 0 1 0100
130	 1 0 1 0100
131	 0 0 1 0100
132	 1 0 1 0100
133	 0 0 1 0100
134	 1 0 1 0100
135	 0 0 1 0100
136	 1 0 1 0100
137	 0 0 1 0100
138	 1 0 1 0100
139	 0 0 1 0100
140	 1 0 1 0100
141	 0 0 1 0100
142	 1 0 1 0100
143	 0 0 1 0100
144	 1 0 1 0100
145	 0 0 1 0101
146	 1 0 1 0101
147	 0 0 1 0101
148	 1 0 1 0101
149	 0 0 1 0101
150	 1 0 1 0101
151	 0 0 1 0101
152	 1 0 1 0101
153	 0 0 1 0101
154	 1 0 1 0101
155	 0 0 1 0101
156	 1 0 1 0101
157	 0 0 1 0101
158	 1 0 1 0101
159	 0 0 1 0101
160	 1 0 1 0101
161	 0 0 1 0101
162	 1 0 1 0101
163	 0 0 1 0101
164	 1 0 1 0101
165	 0 0 1 0101
166	 1 0 1 0101
167	 0 0 1 0101
168	 1 0 1 0101
169	 0 0 1 0101
170	 1 0 1 0101
171	 0 0 1 0101
172	 1 0 1 0101
173	 0 0 1 0101
174	 1 0 1 0101
175	 0 0 1 0101
176	 1 0 1 0101
177	 0 0 1 0110
178	 1 0 1 0110
179	 0 0 1 0110
180	 1 0 1 0110
181	 0 0 1 0110
182	 1 0 1 0110
183	 0 0 1 0110
184	 1 0 1 0110
185	 0 0 1 0110
186	 1 0 1 0110
187	 0 0 1 0110
188	 1 0 1 0110
189	 0 0 1 0110
190	 1 0 1 0110
191	 0 0 1 0110
192	 1 0 1 0110
193	 0 0 1 0110
194	 1 0 1 0110
195	 0 0 1 0110
196	 1 0 1 0110
197	 0 0 1 0110
198	 1 0 1 0110
199	 0 0 1 0110
200	 1 0 1 0110
201	 0 0 1 0110
202	 1 0 1 0110
203	 0 0 1 0110
204	 1 0 1 0110
205	 0 0 1 0110
206	 1 0 1 0110
207	 0 0 1 0110
208	 1 0 1 0110
209	 0 0 1 0111
210	 1 0 1 0111
211	 0 0 1 0111
212	 1 0 1 0111
213	 0 0 1 0111
214	 1 0 1 0111
215	 0 0 1 0111
216	 1 0 1 0111
217	 0 0 1 0111
218	 1 0 1 0111
219	 0 0 1 0111
220	 1 0 1 0111
221	 0 0 1 0111
222	 1 0 1 0111
223	 0 0 1 0111
224	 1 0 1 0111
225	 0 0 1 0111
226	 1 0 1 0111
227	 0 0 1 0111
228	 1 0 1 0111
229	 0 0 1 0111
230	 1 0 1 0111
231	 0 0 1 0111
232	 1 0 1 0111
233	 0 0 1 0111
234	 1 0 1 0111
235	 0 0 1 0111
236	 1 0 1 0111
237	 0 0 1 0111
238	 1 0 1 0111
239	 0 0 1 0111
240	 1 0 1 0111
241	 0 0 1 1000
242	 1 0 1 1000
243	 0 0 1 1000
244	 1 0 1 1000
245	 0 0 1 1000
246	 1 0 1 1000
247	 0 0 1 1000
248	 1 0 1 1000
249	 0 0 1 1000
250	 1 0 1 1000
251	 0 0 1 1000
252	 1 0 1 1000
253	 0 0 1 1000
254	 1 0 1 1000
255	 0 0 1 1000
256	 1 0 1 1000
257	 0 0 1 1000
258	 1 0 1 1000
259	 0 0 1 1000
260	 1 0 1 1000
261	 0 0 1 1000
262	 1 0 1 1000
263	 0 0 1 1000
264	 1 0 1 1000
265	 0 0 1 1000
266	 1 0 1 1000
267	 0 0 1 1000
268	 1 0 1 1000
269	 0 0 1 1000
270	 1 0 1 1000
271	 0 0 1 1000
272	 1 0 1 1000
273	 0 0 1 1001
274	 1 0 1 1001
275	 0 0 1 1001
276	 1 0 1 1001
277	 0 0 1 1001
278	 1 0 1 1001
279	 0 0 1 1001
280	 1 0 1 1001
281	 0 0 1 1001
282	 1 0 1 1001
283	 0 0 1 1001
284	 1 0 1 1001
285	 0 0 1 1001
286	 1 0 1 1001
287	 0 0 1 1001
288	 1 0 1 1001
289	 0 0 1 1001
290	 1 0 1 1001
291	 0 0 1 1001
292	 1 0 1 1001
293	 0 0 1 1001
294	 1 0 1 1001
295	 0 0 1 1001
296	 1 0 1 1001
297	 0 0 1 1001
298	 1 0 1 1001
299	 0 0 1 1001
300	 1 0 1 1001
301	 0 0 1 1001
302	 1 0 1 1001
303	 0 0 1 1001
304	 1 0 1 1001
305	 0 0 1 1010
306	 1 0 1 1010
307	 0 0 1 1010
308	 1 0 1 1010
309	 0 0 1 1010
310	 1 0 1 1010
311	 0 0 1 1010
312	 1 0 1 1010
313	 0 0 1 1010
314	 1 0 1 1010
315	 0 0 1 1010
316	 1 0 1 1010
317	 0 0 1 1010
318	 1 0 1 1010
319	 0 0 1 1010
320	 1 0 1 1010
321	 0 0 1 1010
322	 1 0 1 1010
323	 0 0 1 1010
324	 1 0 1 1010
325	 0 0 1 1010
326	 1 0 1 1010
327	 0 0 1 1010
328	 1 0 1 1010
329	 0 0 1 1010
330	 1 0 1 1010
331	 0 0 1 1010
332	 1 0 1 1010
333	 0 0 1 1010
334	 1 0 1 1010
335	 0 0 1 1010
336	 1 0 1 1010
337	 0 0 1 1011
338	 1 0 1 1011
339	 0 0 1 1011
340	 1 0 1 1011
341	 0 0 1 1011
342	 1 0 1 1011
343	 0 0 1 1011
344	 1 0 1 1011
345	 0 0 1 1011
346	 1 0 1 1011
347	 0 0 1 1011
348	 1 0 1 1011
349	 0 0 1 1011
350	 1 0 1 1011
351	 0 0 1 1011
352	 1 0 1 1011
353	 0 0 1 1011
354	 1 0 1 1011
355	 0 0 1 1011
356	 1 0 1 1011
357	 0 0 1 1011
358	 1 0 1 1011
359	 0 0 1 1011
360	 1 0 1 1011
361	 0 0 1 1011
362	 1 0 1 1011
363	 0 0 1 1011
364	 1 0 1 1011
365	 0 0 1 1011
366	 1 0 1 1011
367	 0 0 1 1011
368	 1 0 1 1011
369	 0 0 1 1100
370	 1 0 1 1100
371	 0 0 1 1100
372	 1 0 1 1100
373	 0 0 1 1100
374	 1 0 1 1100
375	 0 0 1 1100
376	 1 0 1 1100
377	 0 0 1 1100
378	 1 0 1 1100
379	 0 0 1 1100
380	 1 0 1 1100
381	 0 0 1 1100
382	 1 0 1 1100
383	 0 0 1 1100
384	 1 0 1 1100
385	 0 0 1 1100
386	 1 0 1 1100
387	 0 0 1 1100
388	 1 0 1 1100
389	 0 0 1 1100
390	 1 0 1 1100
391	 0 0 1 1100
392	 1 0 1 1100
393	 0 0 1 1100
394	 1 0 1 1100
395	 0 0 1 1100
396	 1 0 1 1100
397	 0 0 1 1100
398	 1 0 1 1100
399	 0 0 1 1100
400	 1 0 1 1100
401	 0 0 1 1101
402	 1 0 1 1101
403	 0 0 1 1101
404	 1 0 1 1101
405	 0 0 1 1101
406	 1 0 1 1101
407	 0 0 1 1101
408	 1 0 1 1101
409	 0 0 1 1101
410	 1 0 1 1101
411	 0 0 1 1101
412	 1 0 1 1101
413	 0 0 1 1101
414	 1 0 1 1101
415	 0 0 1 1101
416	 1 0 1 1101
417	 0 0 1 1101
418	 1 0 1 1101
419	 0 0 1 1101
420	 1 0 1 1101
421	 0 0 1 1101
422	 1 0 1 1101
423	 0 0 1 1101
424	 1 0 1 1101
425	 0 0 1 1101
426	 1 0 1 1101
427	 0 0 1 1101
428	 1 0 1 1101
429	 0 0 1 1101
430	 1 0 1 1101
431	 0 0 1 1101
432	 1 0 1 1101
433	 0 0 1 1110
434	 1 0 1 1110
435	 0 0 1 1110
436	 1 0 1 1110
437	 0 0 1 1110
438	 1 0 1 1110
439	 0 0 1 1110
440	 1 0 1 1110
441	 0 0 1 1110
442	 1 0 1 1110
443	 0 0 1 1110
444	 1 0 1 1110
445	 0 0 1 1110
446	 1 0 1 1110
447	 0 0 1 1110
448	 1 0 1 1110
449	 0 0 1 1110
450	 1 0 1 1110
451	 0 0 1 1110
452	 1 0 1 1110
453	 0 0 1 1110
454	 1 0 1 1110
455	 0 0 1 1110
456	 1 0 1 1110
457	 0 0 1 1110
458	 1 0 1 1110
459	 0 0 1 1110
460	 1 0 1 1110
461	 0 0 1 1110
462	 1 0 1 1110
463	 0 0 1 1110
464	 1 0 1 1110
465	 0 0 1 1111
466	 1 0 1 1111
467	 0 0 1 1111
468	 1 0 1 1111
469	 0 0 1 1111
470	 1 0 1 1111
471	 0 0 1 1111
472	 1 0 1 1111
473	 0 0 1 1111
474	 1 0 1 1111
475	 0 0 1 1111
476	 1 0 1 1111
477	 0 0 1 1111
478	 1 0 1 1111
479	 0 0 1 1111
480	 1 0 1 1111
481	 0 0 1 1111
482	 1 0 1 1111
483	 0 0 1 1111
484	 1 0 1 1111
485	 0 0 1 1111
486	 1 0 1 1111
487	 0 0 1 1111
488	 1 0 1 1111
489	 0 0 1 1111
490	 1 0 1 1111
491	 0 0 1 1111
492	 1 0 1 1111
493	 0 0 1 1111
494	 1 0 1 1111
495	 0 0 1 1111
496	 1 0 1 1111
497	 0 0 1 0000
498	 1 0 1 0000
499	 0 0 1 0000
500	 1 0 1 0000
501	 0 0 1 0000
502	 1 0 1 0000
503	 0 0 1 0000
504	 1 0 1 0000
505	 0 0 1 0000
506	 1 0 1 0000
507	 0 0 1 0000
508	 1 0 1 0000
509	 0 0 1 0000
510	 1 0 1 0000
511	 0 0 1 0000
512	 1 0 1 0000
513	 0 0 1 0000
514	 1 0 1 0000
515	 0 0 1 0000
516	 1 0 1 0000
517	 0 0 1 0000
518	 1 0 1 0000
519	 0 0 1 0000
520	 1 0 1 0000
521	 0 0 1 0000
522	 1 0 1 0000
523	 0 0 1 0000
524	 1 0 1 0000
525	 0 0 1 0000
526	 1 0 1 0000
527	 0 0 1 0000
528	 1 0 1 0000
529	 0 0 1 0001
530	 1 0 1 0001
531	 0 0 1 0001
532	 1 0 1 0001
533	 0 0 1 0001
534	 1 0 1 0001
535	 0 0 1 0001
536	 1 0 1 0001
537	 0 0 1 0001
538	 1 0 1 0001
539	 0 0 1 0001
540	 1 0 1 0001
541	 0 0 1 0001
542	 1 0 1 0001
543	 0 0 1 0001
544	 1 0 1 0001
545	 0 0 1 0001
546	 1 0 1 0001
547	 0 0 1 0001
548	 1 0 1 0001
549	 0 0 1 0001
550	 1 0 1 0001
551	 0 0 1 0001
552	 1 0 1 0001
553	 0 0 1 0001
554	 1 0 1 0001
555	 0 0 1 0001
556	 1 0 1 0001
557	 0 0 1 0001
558	 1 0 1 0001
559	 0 0 1 0001
560	 1 0 1 0001
561	 0 0 1 0010
562	 1 0 1 0010
563	 0 0 1 0010
564	 1 0 1 0010
565	 0 0 1 0010
566	 1 0 1 0010
567	 0 0 1 0010
568	 1 0 1 0010
569	 0 0 1 0010
570	 1 0 1 0010
571	 0 0 1 0010
572	 1 0 1 0010
573	 0 0 1 0010
574	 1 0 1 0010
575	 0 0 1 0010
576	 1 0 1 0010
577	 0 0 1 0010
578	 1 0 1 0010
579	 0 0 1 0010
580	 1 0 1 0010
581	 0 0 1 0010
582	 1 0 1 0010
583	 0 0 1 0010
584	 1 0 1 0010
585	 0 0 1 0010
586	 1 0 1 0010
587	 0 0 1 0010
588	 1 0 1 0010
589	 0 0 1 0010
590	 1 0 1 0010
591	 0 0 1 0010
592	 1 0 1 0010
593	 0 0 1 0011
594	 1 0 1 0011
595	 0 0 1 0011
596	 1 0 1 0011
597	 0 0 1 0011
598	 1 0 1 0011
599	 0 0 1 0011
600	 1 0 1 0011
601	 0 0 1 0011
602	 1 0 1 0011
603	 0 0 1 0011
604	 1 0 1 0011
605	 0 0 1 0011
606	 1 0 1 0011
607	 0 0 1 0011
608	 1 0 1 0011
609	 0 0 1 0011
610	 1 0 1 0011
611	 0 0 1 0011
612	 1 0 1 0011
613	 0 0 1 0011
614	 1 0 1 0011
615	 0 0 1 0011
616	 1 0 1 0011
617	 0 0 1 0011
618	 1 0 1 0011
619	 0 0 1 0011
620	 1 0 1 0011
621	 0 0 1 0011
622	 1 0 1 0011
623	 0 0 1 0011
624	 1 0 1 0011
625	 0 0 1 0100
626	 1 0 1 0100
627	 0 0 1 0100
628	 1 0 1 0100
629	 0 0 1 0100
630	 1 0 1 0100
631	 0 0 1 0100
632	 1 0 1 0100
633	 0 0 1 0100
634	 1 0 1 0100
635	 0 0 1 0100
636	 1 0 1 0100
637	 0 0 1 0100
638	 1 0 1 0100
639	 0 0 1 0100
640	 1 0 1 0100
641	 0 0 1 0100
642	 1 0 1 0100
643	 0 0 1 0100
644	 1 0 1 0100
645	 0 0 1 0100
646	 1 0 1 0100
647	 0 0 1 0100
648	 1 0 1 0100
649	 0 0 1 0100
650	 1 0 1 0100
651	 0 0 1 0100
652	 1 0 1 0100
653	 0 0 1 0100
654	 1 0 1 0100
655	 0 0 1 0100
656	 1 0 1 0100
657	 0 0 1 0101
658	 1 0 1 0101
659	 0 0 1 0101
660	 1 0 1 0101
661	 0 0 1 0101
662	 1 0 1 0101
663	 0 0 1 0101
664	 1 0 1 0101
665	 0 0 1 0101
666	 1 0 1 0101
667	 0 0 1 0101
668	 1 0 1 0101
669	 0 0 1 0101
670	 1 0 1 0101
671	 0 0 1 0101
672	 1 0 1 0101
673	 0 0 1 0101
674	 1 0 1 0101
675	 0 0 1 0101
676	 1 0 1 0101
677	 0 0 1 0101
678	 1 0 1 0101
679	 0 0 1 0101
680	 1 0 1 0101
681	 0 0 1 0101
682	 1 0 1 0101
683	 0 0 1 0101
684	 1 0 1 0101
685	 0 0 1 0101
686	 1 0 1 0101
687	 0 0 1 0101
688	 1 0 1 0101
689	 0 0 1 0110
690	 1 0 1 0110
691	 0 0 1 0110
692	 1 0 1 0110
693	 0 0 1 0110
694	 1 0 1 0110
695	 0 0 1 0110
696	 1 0 1 0110
697	 0 0 1 0110
698	 1 0 1 0110
699	 0 0 1 0110
700	 1 0 1 0110
701	 0 0 1 0110
702	 1 0 1 0110
703	 0 0 1 0110
704	 1 0 1 0110
705	 0 0 1 0110
706	 1 0 1 0110
707	 0 0 1 0110
708	 1 0 1 0110
709	 0 0 1 0110
710	 1 0 1 0110
711	 0 0 1 0110
712	 1 0 1 0110
713	 0 0 1 0110
714	 1 0 1 0110
715	 0 0 1 0110
716	 1 0 1 0110
717	 0 0 1 0110
718	 1 0 1 0110
719	 0 0 1 0110
720	 1 0 1 0110
721	 0 0 1 0111
722	 1 0 1 0111
723	 0 0 1 0111
724	 1 0 1 0111
725	 0 0 1 0111
726	 1 0 1 0111
727	 0 0 1 0111
728	 1 0 1 0111
729	 0 0 1 0111
730	 1 0 1 0111
731	 0 0 1 0111
732	 1 0 1 0111
733	 0 0 1 0111
734	 1 0 1 0111
735	 0 0 1 0111
736	 1 0 1 0111
737	 0 0 1 0111
738	 1 0 1 0111
739	 0 0 1 0111
740	 1 0 1 0111
741	 0 0 1 0111
742	 1 0 1 0111
743	 0 0 1 0111
744	 1 0 1 0111
745	 0 0 1 0111
746	 1 0 1 0111
747	 0 0 1 0111
748	 1 0 1 0111
749	 0 0 1 0111
750	 1 0 1 0111
751	 0 0 1 0111
752	 1 0 1 0111
753	 0 0 1 1000
754	 1 0 1 1000
755	 0 0 1 1000
756	 1 0 1 1000
757	 0 0 1 1000
758	 1 0 1 1000
759	 0 0 1 1000
760	 1 0 1 1000
761	 0 0 1 1000
762	 1 0 1 1000
763	 0 0 1 1000
764	 1 0 1 1000
765	 0 0 1 1000
766	 1 0 1 1000
767	 0 0 1 1000
768	 1 0 1 1000
769	 0 0 1 1000
770	 1 0 1 1000
771	 0 0 1 1000
772	 1 0 1 1000
773	 0 0 1 1000
774	 1 0 1 1000
775	 0 0 1 1000
776	 1 0 1 1000
777	 0 0 1 1000
778	 1 0 1 1000
779	 0 0 1 1000
780	 1 0 1 1000
781	 0 0 1 1000
782	 1 0 1 1000
783	 0 0 1 1000
784	 1 0 1 1000
785	 0 0 1 1001
786	 1 0 1 1001
787	 0 0 1 1001
788	 1 0 1 1001
789	 0 0 1 1001
790	 1 0 1 1001
791	 0 0 1 1001
792	 1 0 1 1001
793	 0 0 1 1001
794	 1 0 1 1001
795	 0 0 1 1001
796	 1 0 1 1001
797	 0 0 1 1001
798	 1 0 1 1001
799	 0 0 1 1001
800	 1 0 1 1001
801	 0 0 1 1001
802	 1 0 1 1001
803	 0 0 1 1001
804	 1 0 1 1001
805	 0 0 1 1001
806	 1 0 1 1001
807	 0 0 1 1001
808	 1 0 1 1001
809	 0 0 1 1001
810	 1 0 1 1001
811	 0 0 1 1001
812	 1 0 1 1001
813	 0 0 1 1001
814	 1 0 1 1001
815	 0 0 1 1001
816	 1 0 1 1001
817	 0 0 1 1010
818	 1 0 1 1010
819	 0 0 1 1010
820	 1 0 1 1010
821	 0 0 1 1010
822	 1 0 1 1010
823	 0 0 1 1010
824	 1 0 1 1010
825	 0 0 1 1010
826	 1 0 1 1010
827	 0 0 1 1010
828	 1 0 1 1010
829	 0 0 1 1010
830	 1 0 1 1010
831	 0 0 1 1010
832	 1 0 1 1010
833	 0 0 1 1010
834	 1 0 1 1010
835	 0 0 1 1010
836	 1 0 1 1010
837	 0 0 1 1010
838	 1 0 1 1010
839	 0 0 1 1010
840	 1 0 1 1010
841	 0 0 1 1010
842	 1 0 1 1010
843	 0 0 1 1010
844	 1 0 1 1010
845	 0 0 1 1010
846	 1 0 1 1010
847	 0 0 1 1010
848	 1 0 1 1010
849	 0 0 1 1011
850	 1 0 1 1011
851	 0 0 1 1011
852	 1 0 1 1011
853	 0 0 1 1011
854	 1 0 1 1011
855	 0 0 1 1011
856	 1 0 1 1011
857	 0 0 1 1011
858	 1 0 1 1011
859	 0 0 1 1011
860	 1 0 1 1011
861	 0 0 1 1011
862	 1 0 1 1011
863	 0 0 1 1011
864	 1 0 1 1011
865	 0 0 1 1011
866	 1 0 1 1011
867	 0 0 1 1011
868	 1 0 1 1011
869	 0 0 1 1011
870	 1 0 1 1011
871	 0 0 1 1011
872	 1 0 1 1011
873	 0 0 1 1011
874	 1 0 1 1011
875	 0 0 1 1011
876	 1 0 1 1011
877	 0 0 1 1011
878	 1 0 1 1011
879	 0 0 1 1011
880	 1 0 1 1011
881	 0 0 1 1100
882	 1 0 1 1100
883	 0 0 1 1100
884	 1 0 1 1100
885	 0 0 1 1100
886	 1 0 1 1100
887	 0 0 1 1100
888	 1 0 1 1100
889	 0 0 1 1100
890	 1 0 1 1100
891	 0 0 1 1100
892	 1 0 1 1100
893	 0 0 1 1100
894	 1 0 1 1100
895	 0 0 1 1100
896	 1 0 1 1100
897	 0 0 1 1100
898	 1 0 1 1100
899	 0 0 1 1100
900	 1 0 1 1100
901	 0 0 1 1100
902	 1 0 1 1100
903	 0 0 1 1100
904	 1 0 1 1100
905	 0 0 1 1100
906	 1 0 1 1100
907	 0 0 1 1100
908	 1 0 1 1100
909	 0 0 1 1100
910	 1 0 1 1100
911	 0 0 1 1100
912	 1 0 1 1100
913	 0 0 1 1101
914	 1 0 1 1101
915	 0 0 1 1101
916	 1 0 1 1101
917	 0 0 1 1101
918	 1 0 1 1101
919	 0 0 1 1101
920	 1 0 1 1101
921	 0 0 1 1101
922	 1 0 1 1101
923	 0 0 1 1101
924	 1 0 1 1101
925	 0 0 1 1101
926	 1 0 1 1101
927	 0 0 1 1101
928	 1 0 1 1101
929	 0 0 1 1101
930	 1 0 1 1101
931	 0 0 1 1101
932	 1 0 1 1101
933	 0 0 1 1101
934	 1 0 1 1101
935	 0 0 1 1101
936	 1 0 1 1101
937	 0 0 1 1101
938	 1 0 1 1101
939	 0 0 1 1101
940	 1 0 1 1101
941	 0 0 1 1101
942	 1 0 1 1101
943	 0 0 1 1101
944	 1 0 1 1101
945	 0 0 1 1110
946	 1 0 1 1110
947	 0 0 1 1110
948	 1 0 1 1110
949	 0 0 1 1110
950	 1 0 1 1110
951	 0 0 1 1110
952	 1 0 1 1110
953	 0 0 1 1110
954	 1 0 1 1110
955	 0 0 1 1110
956	 1 0 1 1110
957	 0 0 1 1110
958	 1 0 1 1110
959	 0 0 1 1110
960	 1 0 1 1110
961	 0 0 1 1110
962	 1 0 1 1110
963	 0 0 1 1110
964	 1 0 1 1110
965	 0 0 1 1110
966	 1 0 1 1110
967	 0 0 1 1110
968	 1 0 1 1110
969	 0 0 1 1110
970	 1 0 1 1110
971	 0 0 1 1110
972	 1 0 1 1110
973	 0 0 1 1110
974	 1 0 1 1110
975	 0 0 1 1110
976	 1 0 1 1110
977	 0 0 1 1111
978	 1 0 1 1111
979	 0 0 1 1111
980	 1 0 1 1111
981	 0 0 1 1111
982	 1 0 1 1111
983	 0 0 1 1111
984	 1 0 1 1111
985	 0 0 1 1111
986	 1 0 1 1111
987	 0 0 1 1111
988	 1 0 1 1111
989	 0 0 1 1111
990	 1 0 1 1111
991	 0 0 1 1111
992	 1 0 1 1111
993	 0 0 1 1111
994	 1 0 1 1111
995	 0 0 1 1111
996	 1 0 1 1111
997	 0 0 1 1111
998	 1 0 1 1111
999	 0 0 1 1111
1000	 1 0 1 1111
